V4
5
8
pa_RadscorpionStrike3rdP_Human
544404511
-4.065717 127.151436 -0.000003
-0.000000 0.000000 0.000000 1.000000
pa_PairedFEVHoundHumanKill3rdP
2970233161
2.344770 0.241076 -0.000000
1.000000 0.000000 0.000000 -0.000000
pa_RadscorpionStrike3rdP_HumanLead
2892948021
-0.000001 0.000015 0.000000
1.000000 -0.000000 -0.000000 -0.000000
pa_PairedKillMacheteVictim01
1105996729
-2.015607 0.820310 0.000046
1.000000 0.000000 -0.000000 -0.000000
pa_BloodbugHumanSyphon3rdtP_HumanLead
2930506196
0.000000 0.000000 0.000000
1.000000 0.000000 -0.000000 0.000000
pa_PairedPowerArmorForwardPowerPunch_Victim
2893366199
-0.000031 132.141846 0.000031
-0.000000 0.000001 0.000000 1.000000
pa_PairedPowerArmor1HM_Victim
2998668123
0.000001 84.677551 0.000008
-0.000000 0.000001 0.000000 1.000000
pa_PairedBrahminHumanPet
2387076437
0.999960 0.999998 1.000000
1.000000 -0.000000 -0.000000 -0.000000
1
15801208586273886110
23
pa_PairedKill1HMBlunt2Hits
4201537311
-0.000101 0.000000 0.000008
1.000000 0.000000 0.000000 -0.000000
pa_PairedKill1HMRipperSlice
1802532449
-0.000109 0.000000 0.000008
1.000000 0.000000 0.000000 -0.000000
pa_PairedKill1HMSneakBluntSwing
215824713
4.467684 -7.235050 0.000032
1.000000 0.000000 0.000000 -0.000000
pa_PairedKill2HMBashKneeAndHead
2534267212
-0.000000 0.000000 0.000000
1.000000 0.000000 -0.000000 0.000000
pa_PairedKill2HMSwingKill
3530852406
-0.000117 0.000000 0.000008
1.000000 0.000000 -0.000000 -0.000000
pa_PairedKillH2H3Hits
3073750075
-0.000068 0.000000 -0.000003
1.000000 0.000000 0.000000 0.000000
pa_PairedKillH2HPickUpHeadStomp
3911494922
-0.000068 -0.000000 0.000005
1.000000 0.000000 -0.000000 -0.000000
pa_PairedKillPowerFistPunch
187669403
-0.000117 0.000000 0.000008
1.000000 0.000000 -0.000000 -0.000000
pa_KillMoveDeathclawRaiderPickUpStab1stPVictim
1343876957
0.000000 165.970978 0.000008
-0.000000 0.000000 -0.000000 1.000000
pa_DeathclawPlayerPushDownRoar1stPVictim
3884191769
-0.000000 165.970978 0.000008
-0.000000 0.000000 -0.000000 1.000000
pa_DeathclawPAPushDownSwipe1stPVictim
4015092289
-0.000000 181.456085 0.000008
-0.000001 0.000001 0.000000 1.000000
pa_PairedPushFromFront
1302741186
-2.411119 14.573897 0.000122
1.000000 -0.000000 0.000000 0.000000
pa_KillMoveFeralGhoulBiteNPCVictim
2880447714
0.000017 -0.000023 0.000000
1.000000 -0.000000 -0.000000 0.000000
pa_PairedKillSneakPistolHit
3682674380
-0.118270 -0.191458 0.000133
1.000000 0.000000 -0.000000 0.000000
pa_PairedKillSneakRifleHit
1776830312
0.030344 -0.231802 0.000134
1.000000 0.000000 -0.000000 0.000000
pa_PairedRifleGunButt
1080038834
-0.069811 -0.006803 0.000126
1.000000 -0.000000 0.000000 -0.000000
pa_PairedKillPistolBash
1827886191
1.674480 2.835460 0.000028
1.000000 0.000000 -0.000000 0.000000
pa_PairedKill1HMSneakStabNeck
387500270
2.326089 -11.656998 0.000048
1.000000 0.000000 0.000000 -0.000000
pa_PairedKillH2HNeckBreakFromBehind
1640892640
-4.738691 -0.123549 0.000010
1.000000 0.000000 0.000000 -0.000000
pa_PairedKill1HMStabNeck
3954820883
0.000008 -0.000000 -0.000000
1.000000 0.000000 -0.000000 -0.000000
pa_PairedKillDeathclawGauntletStabStomach
6658198
-0.000000 0.000000 0.000010
1.000000 0.000000 0.000000 -0.000000
pa_PairedKillDeathclawGauntletUppercut
1880032616
-0.000129 0.000000 -0.000000
1.000000 0.000000 0.000000 0.000000
pa_PairedFrontBodySlam
3860173173
0.000038 0.000039 0.000008
1.000000 -0.000000 -0.000000 0.000000
4
16996310029805328535
4253287601835120791
3838121481589790871
15759343990970030231
133
pa_PairedDogmeatHumanGreetPet
3833158785
0.000005 0.000012 0.000031
1.000000 -0.000000 0.000000 0.000000
pa_PairedDogmeatKillHumanStanding
2784293625
0.000003 0.000012 -0.000008
1.000000 0.000000 -0.000000 -0.000000
pa_PairedYaoGuaiKillHumanStanding
365553476
0.000061 150.126144 -0.000015
-0.000000 0.000001 0.000000 1.000000
pa_PairedDogmeatHumanGreetPetKneel
2654829732
-0.000000 -0.000000 0.000015
1.000000 0.000000 0.000000 -0.000000
pa_PairedDogmeatHumanInspectObject
2224898044
-0.000004 0.000012 0.000053
1.000000 -0.000000 0.000000 -0.000000
pa_RadStagHumanGore3rdP
2706629606
0.000002 -0.000031 0.000007
1.000000 -0.000000 0.000000 -0.000000
pa_PairedDogmeatHumanGreetHand
759985334
0.000005 0.000012 0.000038
1.000000 0.000000 0.000000 -0.000000
pa_KillMoveDeathclawRaiderPickUpSlam
999717133
-0.000003 138.984985 -1.999973
0.000000 0.000000 0.000000 1.000000
pa_PairedBlockPunchCounter
1593399197
0.896888 1.101000 0.000042
1.000000 -0.000000 0.000000 -0.000000
pa_PairedBlockPunchCounterVictim
1593399197
-1.197429 97.549393 0.000042
0.000000 0.000000 0.000000 1.000000
pa_PairedFrontBodySlam
3860173173
2.288519 -6.667841 0.000008
1.000000 -0.000000 0.000000 0.000000
pa_PairedFrontBodySlamVictim
3860173173
8.186758 55.875999 0.000008
0.000000 0.000000 0.000000 1.000000
pa_PairedFrontPushKick
272994974
1.021070 -0.286244 0.000019
1.000000 0.000000 -0.000000 0.000000
pa_PairedFrontPushKickVictim
272994974
1.518275 120.605995 -0.000004
0.000000 0.000000 0.000000 1.000000
pa_PairedLegPullTakeDown
3705772992
1.490319 -1.766470 0.000015
1.000000 -0.000000 0.000000 -0.000000
pa_PairedLegPullTakeDownVictim
3705772992
12.218104 74.013596 0.000000
0.000000 0.000000 0.000000 1.000000
pa_PairedUpperCutCounterPunch
3750336134
-2.994969 -0.828253 0.000118
1.000000 -0.000000 0.000000 -0.000000
pa_PairedUpperCutCounterPunchVictim
3750336134
1.193509 83.576393 0.000168
0.000000 0.000000 0.000000 1.000000
pa_PairedPushFromFront
1302741186
-2.411119 14.573897 0.000122
1.000000 -0.000000 0.000000 0.000000
pa_PairedPushFromFrontVictim
1302741186
0.520939 94.351395 0.000126
0.000000 0.000000 0.000000 1.000000
pa_PairedGrabPunchSwingThrowVictim
1399373545
0.071662 97.327202 0.000134
0.000000 0.000000 0.000000 1.000000
pa_PairedGrabPunchSwingThrow
1399373545
-0.568276 1.115770 0.000137
1.000000 -0.000000 -0.000000 0.000000
pa_PairedDuckHookCounter
2776572182
1.114770 0.075451 0.000015
1.000000 0.000000 -0.000000 0.000000
pa_PairedDuckHookCounterVictim
2776572182
-0.733611 70.596992 0.000027
0.000000 0.000000 0.000000 1.000000
pa_PairedKill1HMSlashKneeAndNeck
294751883
12.320897 -1.204699 -0.000004
1.000000 0.000000 0.000000 0.000000
pa_PairedKill1HMSlashKneeAndNeckVictim
294751883
-0.052216 121.043991 0.000020
-0.000000 0.000000 -0.000000 1.000000
pa_PairedKillTacklePunchToDeath
2633227146
0.398174 0.895394 0.000031
1.000000 -0.000000 -0.000000 0.000000
pa_PairedKillTacklePunchToDeathVictim
2633227146
10.091199 125.067001 0.000039
0.000000 0.000000 0.000000 1.000000
pa_PairedKill2HMBashKneeAndHead
2534267212
0.606180 0.680240 0.000008
1.000000 0.000000 0.000000 -0.000000
pa_PairedKill2HMBashKneeAndHeadVictim
2534267212
6.392116 122.448990 0.000000
0.000000 0.000000 0.000000 1.000000
pa_PairedKill1HMStabStomachForward
2944353912
-2.234907 7.140058 -0.000004
1.000000 -0.000000 0.000000 -0.000000
pa_PairedKill1HMStabStomachForwardVictim
2944353912
6.477995 150.983002 0.000001
0.000000 0.000000 0.000000 1.000000
pa_PairedRifleGunButt
1080038834
-0.069811 -0.006803 0.000118
1.000000 -0.000000 0.000000 -0.000000
pa_PairedRifleGunButtVictim
1080038834
-3.902972 108.123993 0.000088
0.000000 0.000000 0.000000 1.000000
pa_PairedKill1HMBlunt2Hits
4201537311
4.677265 -1.117932 0.000016
1.000000 0.000000 -0.000000 -0.000000
pa_PairedKill1HMBlunt2HitsVictim
4201537311
0.508458 109.783997 0.000068
0.000000 0.000000 0.000000 1.000000
pa_PairedKill1HMRipperSlice
1802532449
4.900134 3.060000 0.000035
1.000000 -0.000000 0.000000 -0.000000
pa_PairedKill1HMRipperSliceVictim
1802532449
3.449787 103.331589 0.000076
0.000000 0.000000 0.000000 1.000000
pa_PairedKill1HMRipperStabStomach
3685971759
3.379532 0.863025 0.000050
1.000000 -0.000000 0.000000 0.000000
pa_PairedKill1HMRipperStabStomachVictim
3685971759
0.398967 122.787201 0.000044
-0.000000 0.000000 -0.000000 1.000000
pa_PairedKillDeathclawGauntletStabStomach
6658198
2.449792 -5.802945 0.000038
1.000000 0.000000 -0.000000 -0.000000
pa_PairedKillDeathclawGauntletStabStomachVictim
6658198
4.931668 115.119049 0.000099
0.000000 0.000000 0.000000 1.000000
pa_PairedKillDeathclawGauntletUppercut
1880032616
1.291301 -0.984761 0.000031
1.000000 -0.000000 0.000000 0.000000
pa_PairedKillDeathclawGauntletUppercutVictim
1880032616
-0.296956 162.213882 0.000073
-0.000000 0.000000 0.000000 1.000000
pa_PairedKill1HMSneakStabNeck
387500270
2.326085 -11.657040 0.000049
1.000000 0.000000 0.000000 -0.000000
pa_PairedKill1HMSneakStabNeckVictim
387500270
-1.979756 57.519363 0.000038
1.000000 -0.000000 0.000000 0.000000
pa_PairedKill1HMSneakStabSide
344458504
2.396054 -8.482928 0.000026
1.000000 0.000000 -0.000000 0.000000
pa_PairedKill1HMSneakStabSideVictim
344458504
-10.348011 57.343376 0.000046
1.000000 -0.000000 -0.000000 -0.000000
pa_PairedKill1HMStabNeck
3954820883
3.170140 1.212695 0.000114
1.000000 0.000000 -0.000000 0.000000
pa_PairedKill1HMStabNeckVictim
3954820883
-3.633350 124.400162 0.000015
0.000000 0.000000 0.000000 1.000000
pa_PairedKillPowerFistPunch
187669403
3.607564 -1.303379 0.000118
1.000000 -0.000000 -0.000000 -0.000000
pa_PairedKillPowerFistPunchVictim
187669403
8.502090 134.935760 0.000107
0.000000 0.000000 0.000000 1.000000
pa_PairedKill2HMStabUp
2971043497
5.265290 4.371195 0.000061
1.000000 -0.000000 0.000000 0.000000
pa_PairedKill2HMStabUpVictim
2971043497
25.427734 98.774582 0.000087
-0.000000 0.000000 0.000000 1.000000
pa_PairedKillH2HSuplex
1542857675
2.585634 0.543498 -0.000000
1.000000 -0.000000 0.000000 -0.000000
pa_VictimPairedKillH2HSuplex
1542857675
2.343638 43.288990 0.000007
1.000000 0.000000 0.000000 0.000000
pa_PairedKillH2HFrontChoke
1804093909
6.118870 1.516989 0.000003
1.000000 0.000001 -0.000003 0.000001
pa_PairedKillH2HFrontChokeVictim
1804093909
19.162762 88.982475 0.000106
0.000001 0.000000 0.000000 1.000000
pa_PairedKill2HMSwingKill
3530852406
-2.600286 -0.598021 -0.000001
1.000000 0.000000 0.000000 -0.000000
pa_PairedKill2HMSwingKillVictim
3530852406
-3.920572 114.731468 0.000107
-0.000000 0.000000 0.000000 1.000000
pa_PairedKillH2HNeckBreakFromBehind
1640892640
-4.738700 -0.123549 0.000014
1.000000 -0.000000 -0.000002 0.000000
pa_PairedKillH2HNeckBreakFromBehindVictim
1640892640
2.994132 58.728752 0.000004
1.000000 -0.000000 -0.000000 0.000000
pa_PairedKill1HMSneakBluntSwing
215824713
4.467690 -7.235047 0.000035
1.000000 -0.000000 0.000000 0.000000
pa_PairedKill1HMSneakBluntSwingVictim
215824713
-3.118739 100.308990 0.000038
1.000000 0.000000 -0.000000 -0.000000
pa_PairedKill2HMLegSwingKill
2582136033
1.704839 0.338324 0.000190
1.000000 0.000000 0.000000 -0.000000
pa_PairedKill2HMLegSwingKillVictim
2582136033
-1.256819 139.034988 0.000053
0.000000 0.000000 0.000000 1.000000
pa_PairedRifleBayonetteStab
2121343160
3.874700 -1.891808 0.000038
1.000000 -0.000000 0.000000 -0.000000
pa_PairedRifleBayonetteStabVictim
2121343160
9.181751 117.868126 0.000126
0.000000 0.000000 0.000000 1.000000
pa_PairedKill2HMBashSideOfBody
1671144155
-6.191729 2.490070 0.000312
1.000000 -0.000000 0.000000 0.000000
pa_PairedKill2HMBashSideOfBodyVictim
1671144155
16.315855 109.548996 0.000015
-0.000000 0.000000 0.000000 1.000000
pa_PairedKill2HMStabForward
2684311182
-2.608380 -0.834743 0.000045
1.000000 0.000000 0.000000 0.000000
pa_PairedKill2HMStabForwardVictim
2684311182
6.535601 123.256981 0.000050
0.000000 0.000000 0.000000 1.000000
pa_PairedKillH2HEvadeJabCrossCounter
1853032361
7.647297 0.510060 0.000112
1.000000 -0.000000 -0.000000 0.000000
pa_PairedKillH2HEvadeJabCrossCounterVictim
1853032361
29.659044 93.607574 0.000030
0.000001 0.000000 0.000000 1.000000
pa_PairedKillH2HJudoThrowNeckBreak
1748863059
2.904179 -5.696090 0.000081
1.000000 0.000000 -0.000000 -0.000000
pa_PairedKillH2HJudoThrowNeckBreakVictim
1748863059
0.617759 79.784294 0.000122
0.000001 0.000000 0.000000 1.000000
pa_PairedKillH2HPickUpHeadStomp
3911494922
-5.839437 -9.605690 0.000073
1.000000 0.000000 0.000000 0.000000
pa_PairedKillH2HPickUpHeadStompVictim
3911494922
21.879297 44.156998 0.000049
0.000001 0.000000 0.000000 1.000000
pa_PairedKillH2HSlipCrossCounter
1836924769
8.957304 -0.469382 0.000096
1.000000 -0.000000 -0.000000 -0.000000
pa_PairedKillH2HSlipCrossCounterVictim
1836924769
12.833709 63.116096 0.000038
0.000001 0.000000 0.000000 1.000000
pa_PairedKillH2H3Hits
3073750075
6.801548 -0.757368 0.000119
1.000000 -0.000000 0.000000 -0.000000
pa_PairedKillH2H3HitsVictim
3073750075
-1.268328 72.116592 0.000015
0.000001 0.000000 0.000000 1.000000
pa_PairedKillH2HSlideTackle
2254980236
1.344811 -0.758915 -0.999934
1.000000 0.000000 -0.000000 0.000000
pa_PairedKillH2HSlideTackleVictim
2254980236
-0.784735 203.242996 0.000061
0.000001 0.000000 0.000000 1.000000
pa_PairedNPCBodySlam
3821747364
8.073888 1.658289 0.000053
1.000000 -0.000000 0.000000 -0.000000
pa_PairedNPCBodySlamVictim
3821747364
23.000002 141.258987 0.000065
-0.000000 0.000000 0.000000 1.000000
pa_KillMoveDeathclawRaiderStabRip
4169013329
4.421114 167.037964 -1.999977
0.000000 0.000001 0.000000 1.000000
pa_KillMoveDeathclawRaiderStabThrow
804297320
-0.000139 162.483078 1.999873
-0.000000 0.000000 0.000000 1.000000
pa_KillMoveFeralGhoulBiteNPC
2880447714
0.000020 112.838974 0.000015
-0.000000 0.000001 0.000000 1.000000
pa_PairedDeathclawRaiderGrabHeadThrow
1659120523
-0.000007 169.439957 -1.999969
0.000000 0.000000 0.000000 1.000000
pa_PairedFeralGhoulBiteNPCNeckVictim
3886463512
-3.633352 110.147125 0.000008
-0.000000 0.000000 0.000000 1.000000
pa_PairedKillAssaultronTakeDownHeadLaser_Victim
3321137862
-0.534734 92.039314 0.000007
-0.000000 0.000000 0.000000 1.000000
pa_PairedKillAssaultronLiftStab_Victim
3305092921
-10.112184 103.784416 0.000004
-0.000000 0.000000 0.000000 1.000000
pa_PairedDogmeatBiteHumanLeg2
2320565325
-0.000008 0.000016 0.000027
1.000000 -0.000000 -0.000000 0.000000
pa_PairedDogmeatBiteHumanLeg1
324556279
-0.000000 0.000037 -0.000000
1.000000 0.000000 0.000000 -0.000000
pa_PairedKillAssaultronTakeDownStab_Victim
1249733197
-0.000147 73.110641 -0.000001
-0.000000 0.000000 0.000000 1.000000
pa_PairedDogmeatBiteHumanStanding
3125590547
0.000034 185.551971 0.000042
-0.000000 0.000000 -0.000000 1.000000
pa_PairedDogmeatBiteHumanMoving
2116699132
0.276080 185.551971 0.000061
-0.000000 0.000000 -0.000000 1.000000
pa_PairedKillAssaultronLiftHeadLaser_Victim
1512691622
-10.112185 103.784416 0.000012
-0.000000 0.000000 0.000000 1.000000
pa_PairedKillMQ302DanseDeath
2667809829
-5.089181 -1.149931 0.000031
1.000000 0.000000 -0.000000 -0.000000
pa_PairedKillMQ302DanseDeathVictim
2667809829
0.000001 116.481651 0.000008
0.000000 0.000000 0.000000 1.000000
pa_PairedKillMove2hmHumanAttacker01
2593500287
0.000000 -0.000000 0.000023
1.000000 -0.000000 -0.000000 -0.000000
pa_PairedKillMove2hmHumanVictim01
2593500287
0.000003 80.741043 0.000031
0.000000 0.000001 0.000000 1.000000
pa_PairedKillMove1hmHumanAttacker01
337292188
-0.000000 0.000000 0.000027
1.000000 0.000000 0.000000 -0.000000
pa_PairedKillMove1hmHumanVictim01
337292188
0.000003 97.446655 0.000027
-0.000000 0.000001 0.000000 1.000000
pa_PairedKillMove1hmShortHumanAttacker01
1045491403
0.000003 0.000012 0.000008
1.000000 0.000000 -0.000000 -0.000000
pa_PairedKillMove1hmShortHumanVictim01
1045491403
0.000094 66.903839 0.000000
-0.000000 0.000001 0.000000 1.000000
pa_PairedMS13PaulFight
1680721313
8.957301 -0.469382 0.000119
1.000000 -0.000000 -0.000000 -0.000000
pa_PairedMS13PaulFightVictim
1680721313
12.833714 63.116096 0.000060
0.000001 0.000000 0.000000 1.000000
pa_PairedKillSneakPistolHit
3682674380
-0.118266 -0.191458 0.000119
1.000000 -0.000000 0.000000 -0.000000
pa_PairedKillSneakPistolHitVictim
3682674380
5.418579 86.536377 0.000031
1.000000 0.000000 -0.000000 -0.000000
pa_PairedKillSneakRifleHit
1776830312
0.030341 -0.231799 0.000149
1.000000 0.000000 -0.000000 0.000000
pa_PairedKillSneakRifleHitVictim
1776830312
19.057051 58.765579 0.000031
1.000000 0.000000 -0.000000 -0.000000
pa_PairedH2HJabJabCross
3882209870
0.145453 0.487200 0.000039
1.000000 -0.000000 0.000000 -0.000000
pa_PairedH2HJabJabCrossVictim
3882209870
4.620141 75.493195 0.000068
0.000001 0.000000 0.000000 1.000000
pa_PairedH2HLegKick
1294561012
0.069190 0.301313 0.000035
1.000000 0.000000 0.000000 0.000000
pa_PairedH2HLegKickVictim
1294561012
-6.392027 95.811409 0.000026
0.000001 0.000000 0.000000 1.000000
pa_PairedKillPistolBash
1827886191
1.674480 2.835460 0.000035
1.000000 0.000000 -0.000000 0.000000
pa_PairedKillPistolBashVictim
1827886191
-0.317540 72.135490 0.000039
0.000001 0.000000 0.000000 1.000000
pa_PairedKillDLC01WeaponKill01
2438615965
-0.000000 0.000000 0.000011
1.000000 0.000000 -0.000000 -0.000000
pa_PairedKillDLC01WeaponKill01Victim
2438615965
-3.920571 114.731483 0.000103
0.000000 0.000000 0.000000 1.000000
pa_PairedKill2hmOverhead
2990760196
-0.000000 -0.000000 0.000004
1.000000 -0.000000 -0.000000 -0.000000
pa_PairedKill2hmOverheadVictim
2990760196
0.000003 100.651863 0.000031
0.000000 0.000001 0.000000 1.000000
pa_PairedKill1hmThroatSlashVictim
4280034375
-3.633354 84.703529 0.000015
0.000000 0.000000 0.000000 1.000000
pa_PairedKill1hmThroatSlash
4280034375
3.170138 1.212692 0.000111
1.000000 0.000000 -0.000000 -0.000000
pa_PairedKillH2HKneeSmash
3584348608
-4.344185 -0.757353 0.000122
1.000000 -0.000000 0.000000 -0.000000
pa_PairedKillH2HKneeSmashVictim
3584348608
-7.697334 88.311096 0.000030
0.000001 0.000000 0.000000 1.000000
pa_PairedKillH2HSuperMan
2260098676
-4.344180 -0.757343 0.000114
1.000000 -0.000000 0.000000 -0.000000
pa_PairedKillH2HSuperManVictim
2260098676
-7.697328 101.836464 0.000030
0.000001 0.000000 0.000000 1.000000
pa_PairedKill1hmShortShank
3928653136
3.170138 1.212692 0.000107
1.000000 -0.000000 -0.000000 -0.000000
pa_PairedKill1hmShortShank_Victim
3928653136
-3.633350 76.112335 0.000023
0.000000 0.000000 0.000000 1.000000
pa_PairedKillH2HUpperCutVictim
3417537393
0.126186 78.509254 0.000030
0.000001 0.000000 0.000000 1.000000
pa_PairedKillH2HUpperCut
3417537393
-0.000069 0.000001 0.000107
1.000000 0.000000 -0.000000 0.000000
1
5596004762105745310
141
pa_PairedDogmeatHumanGreetPet
3833158785
0.000005 0.000012 0.000031
1.000000 -0.000000 0.000000 0.000000
pa_PairedDogmeatKillHumanStanding
2784293625
0.000003 0.000012 -0.000008
1.000000 0.000000 -0.000000 -0.000000
pa_PairedYaoGuaiKillHumanStanding
365553476
0.000061 150.126144 -0.000015
-0.000000 0.000001 0.000000 1.000000
pa_PairedDogmeatHumanGreetPetKneel
2654829732
-0.000000 -0.000000 0.000015
1.000000 0.000000 0.000000 -0.000000
pa_PairedDogmeatHumanInspectObject
2224898044
-0.000004 0.000012 0.000053
1.000000 -0.000000 0.000000 -0.000000
pa_RadStagHumanGore3rdP
2706629606
0.000002 -0.000031 0.000007
1.000000 -0.000000 0.000000 -0.000000
pa_PairedDogmeatHumanGreetHand
759985334
0.000005 0.000012 0.000038
1.000000 0.000000 0.000000 -0.000000
pa_KillMoveDeathclawRaiderPickUpSlam
999717133
-0.000003 138.984985 -1.999973
0.000000 0.000000 0.000000 1.000000
pa_PairedBlockPunchCounter
1593399197
0.896888 1.101000 0.000042
1.000000 -0.000000 0.000000 -0.000000
pa_PairedBlockPunchCounterVictim
1593399197
-1.197429 97.549393 0.000042
0.000000 0.000000 0.000000 1.000000
pa_PairedFrontBodySlam
3860173173
2.288519 -6.667841 0.000008
1.000000 -0.000000 0.000000 0.000000
pa_PairedFrontBodySlamVictim
3860173173
8.186758 55.875999 0.000008
0.000000 0.000000 0.000000 1.000000
pa_PairedFrontPushKick
272994974
1.021070 -0.286244 0.000019
1.000000 0.000000 -0.000000 0.000000
pa_PairedFrontPushKickVictim
272994974
1.518275 120.605995 -0.000004
0.000000 0.000000 0.000000 1.000000
pa_PairedLegPullTakeDown
3705772992
1.490319 -1.766470 0.000015
1.000000 -0.000000 0.000000 -0.000000
pa_PairedLegPullTakeDownVictim
3705772992
12.218104 74.013596 0.000000
0.000000 0.000000 0.000000 1.000000
pa_PairedUpperCutCounterPunch
3750336134
-2.994969 -0.828253 0.000118
1.000000 -0.000000 0.000000 -0.000000
pa_PairedUpperCutCounterPunchVictim
3750336134
1.193509 83.576393 0.000168
0.000000 0.000000 0.000000 1.000000
pa_PairedPushFromFront
1302741186
-2.411119 14.573897 0.000122
1.000000 -0.000000 0.000000 0.000000
pa_PairedPushFromFrontVictim
1302741186
0.520939 94.351395 0.000126
0.000000 0.000000 0.000000 1.000000
pa_PairedGrabPunchSwingThrowVictim
1399373545
0.071662 97.327202 0.000134
0.000000 0.000000 0.000000 1.000000
pa_PairedGrabPunchSwingThrow
1399373545
-0.568276 1.115770 0.000137
1.000000 -0.000000 -0.000000 0.000000
pa_PairedDuckHookCounter
2776572182
1.114770 0.075451 0.000015
1.000000 0.000000 -0.000000 0.000000
pa_PairedDuckHookCounterVictim
2776572182
-0.733611 70.596992 0.000027
0.000000 0.000000 0.000000 1.000000
pa_PairedKill1HMSlashKneeAndNeck
294751883
12.320897 -1.204699 -0.000004
1.000000 0.000000 0.000000 0.000000
pa_PairedKill1HMSlashKneeAndNeckVictim
294751883
-0.052216 121.043991 0.000020
-0.000000 0.000000 -0.000000 1.000000
pa_PairedKillTacklePunchToDeath
2633227146
0.398174 0.895394 0.000031
1.000000 -0.000000 -0.000000 0.000000
pa_PairedKillTacklePunchToDeathVictim
2633227146
10.091199 125.067001 0.000039
0.000000 0.000000 0.000000 1.000000
pa_PairedKill2HMBashKneeAndHead
2534267212
0.606180 0.680240 0.000008
1.000000 0.000000 0.000000 -0.000000
pa_PairedKill2HMBashKneeAndHeadVictim
2534267212
6.392116 122.448990 0.000000
0.000000 0.000000 0.000000 1.000000
pa_PairedKill1HMStabStomachForward
2944353912
-2.234907 7.140058 -0.000004
1.000000 -0.000000 0.000000 -0.000000
pa_PairedKill1HMStabStomachForwardVictim
2944353912
6.477995 150.983002 0.000001
0.000000 0.000000 0.000000 1.000000
pa_PairedRifleGunButt
1080038834
-0.069811 -0.006803 0.000118
1.000000 -0.000000 0.000000 -0.000000
pa_PairedRifleGunButtVictim
1080038834
-3.902972 108.123993 0.000088
0.000000 0.000000 0.000000 1.000000
pa_PairedKill1HMBlunt2Hits
4201537311
4.677265 -1.117932 0.000016
1.000000 0.000000 -0.000000 -0.000000
pa_PairedKill1HMBlunt2HitsVictim
4201537311
0.508458 109.783997 0.000068
0.000000 0.000000 0.000000 1.000000
pa_PairedKill1HMRipperSlice
1802532449
4.900134 3.060000 0.000035
1.000000 -0.000000 0.000000 -0.000000
pa_PairedKill1HMRipperSliceVictim
1802532449
3.449787 103.331589 0.000076
0.000000 0.000000 0.000000 1.000000
pa_PairedKill1HMRipperStabStomach
3685971759
3.379532 0.863025 0.000050
1.000000 -0.000000 0.000000 0.000000
pa_PairedKill1HMRipperStabStomachVictim
3685971759
0.398967 122.787201 0.000044
-0.000000 0.000000 -0.000000 1.000000
pa_PairedKillDeathclawGauntletStabStomach
6658198
2.449792 -5.802945 0.000038
1.000000 0.000000 -0.000000 -0.000000
pa_PairedKillDeathclawGauntletStabStomachVictim
6658198
4.931668 115.119049 0.000099
0.000000 0.000000 0.000000 1.000000
pa_PairedKillDeathclawGauntletUppercut
1880032616
1.291301 -0.984761 0.000031
1.000000 -0.000000 0.000000 0.000000
pa_PairedKillDeathclawGauntletUppercutVictim
1880032616
-0.296956 162.213882 0.000073
-0.000000 0.000000 0.000000 1.000000
pa_PairedKill1HMSneakStabNeck
387500270
2.326085 -11.657040 0.000049
1.000000 0.000000 0.000000 -0.000000
pa_PairedKill1HMSneakStabNeckVictim
387500270
-1.979756 57.519363 0.000038
1.000000 -0.000000 0.000000 0.000000
pa_PairedKill1HMSneakStabSide
344458504
2.396054 -8.482928 0.000026
1.000000 0.000000 -0.000000 0.000000
pa_PairedKill1HMSneakStabSideVictim
344458504
-10.348011 57.343376 0.000046
1.000000 -0.000000 -0.000000 -0.000000
pa_PairedKill1HMStabNeck
3954820883
3.170140 1.212695 0.000114
1.000000 0.000000 -0.000000 0.000000
pa_PairedKill1HMStabNeckVictim
3954820883
-3.633350 124.400162 0.000015
0.000000 0.000000 0.000000 1.000000
pa_PairedKillPowerFistPunch
187669403
3.607564 -1.303379 0.000118
1.000000 -0.000000 -0.000000 -0.000000
pa_PairedKillPowerFistPunchVictim
187669403
8.502090 134.935760 0.000107
0.000000 0.000000 0.000000 1.000000
pa_PairedKill2HMStabUp
2971043497
5.265290 4.371195 0.000061
1.000000 -0.000000 0.000000 0.000000
pa_PairedKill2HMStabUpVictim
2971043497
25.427734 98.774582 0.000087
-0.000000 0.000000 0.000000 1.000000
pa_PairedKillH2HSuplex
1542857675
2.585634 0.543498 -0.000000
1.000000 -0.000000 0.000000 -0.000000
pa_VictimPairedKillH2HSuplex
1542857675
2.343638 43.288990 0.000007
1.000000 0.000000 0.000000 0.000000
pa_PairedKillH2HFrontChoke
1804093909
6.118870 1.516989 0.000003
1.000000 0.000001 -0.000003 0.000001
pa_PairedKillH2HFrontChokeVictim
1804093909
19.162762 88.982475 0.000106
0.000001 0.000000 0.000000 1.000000
pa_PairedKill2HMSwingKill
3530852406
-2.600286 -0.598021 -0.000001
1.000000 0.000000 0.000000 -0.000000
pa_PairedKill2HMSwingKillVictim
3530852406
-3.920572 114.731468 0.000107
-0.000000 0.000000 0.000000 1.000000
pa_PairedKillH2HNeckBreakFromBehind
1640892640
-4.738700 -0.123549 0.000014
1.000000 -0.000000 -0.000002 0.000000
pa_PairedKillH2HNeckBreakFromBehindVictim
1640892640
2.994132 58.728752 0.000004
1.000000 -0.000000 -0.000000 0.000000
pa_PairedKill1HMSneakBluntSwing
215824713
4.467690 -7.235047 0.000035
1.000000 -0.000000 0.000000 0.000000
pa_PairedKill1HMSneakBluntSwingVictim
215824713
-3.118739 100.308990 0.000038
1.000000 0.000000 -0.000000 -0.000000
pa_PairedKill2HMLegSwingKill
2582136033
1.704839 0.338324 0.000190
1.000000 0.000000 0.000000 -0.000000
pa_PairedKill2HMLegSwingKillVictim
2582136033
-1.256819 139.034988 0.000053
0.000000 0.000000 0.000000 1.000000
pa_PairedRifleBayonetteStab
2121343160
3.874700 -1.891808 0.000038
1.000000 -0.000000 0.000000 -0.000000
pa_PairedRifleBayonetteStabVictim
2121343160
9.181751 117.868126 0.000126
0.000000 0.000000 0.000000 1.000000
pa_PairedKill2HMBashSideOfBody
1671144155
-6.191729 2.490070 0.000312
1.000000 -0.000000 0.000000 0.000000
pa_PairedKill2HMBashSideOfBodyVictim
1671144155
16.315855 109.548996 0.000015
-0.000000 0.000000 0.000000 1.000000
pa_PairedKill2HMStabForward
2684311182
-2.608380 -0.834743 0.000045
1.000000 0.000000 0.000000 0.000000
pa_PairedKill2HMStabForwardVictim
2684311182
6.535601 123.256981 0.000050
0.000000 0.000000 0.000000 1.000000
pa_PairedKillH2HEvadeJabCrossCounter
1853032361
7.647297 0.510060 0.000112
1.000000 -0.000000 -0.000000 0.000000
pa_PairedKillH2HEvadeJabCrossCounterVictim
1853032361
29.659044 93.607574 0.000030
0.000001 0.000000 0.000000 1.000000
pa_PairedKillH2HJudoThrowNeckBreak
1748863059
2.904179 -5.696090 0.000081
1.000000 0.000000 -0.000000 -0.000000
pa_PairedKillH2HJudoThrowNeckBreakVictim
1748863059
0.617759 79.784294 0.000122
0.000001 0.000000 0.000000 1.000000
pa_PairedKillH2HPickUpHeadStomp
3911494922
-5.839437 -9.605690 0.000073
1.000000 0.000000 0.000000 0.000000
pa_PairedKillH2HPickUpHeadStompVictim
3911494922
21.879297 44.156998 0.000049
0.000001 0.000000 0.000000 1.000000
pa_PairedKillH2HSlipCrossCounter
1836924769
8.957304 -0.469382 0.000096
1.000000 -0.000000 -0.000000 -0.000000
pa_PairedKillH2HSlipCrossCounterVictim
1836924769
12.833709 63.116096 0.000038
0.000001 0.000000 0.000000 1.000000
pa_PairedKillH2H3Hits
3073750075
6.801548 -0.757368 0.000119
1.000000 -0.000000 0.000000 -0.000000
pa_PairedKillH2H3HitsVictim
3073750075
-1.268328 72.116592 0.000015
0.000001 0.000000 0.000000 1.000000
pa_PairedKillH2HSlideTackle
2254980236
1.344811 -0.758915 -0.999934
1.000000 0.000000 -0.000000 0.000000
pa_PairedKillH2HSlideTackleVictim
2254980236
-0.784735 203.242996 0.000061
0.000001 0.000000 0.000000 1.000000
pa_PairedNPCBodySlam
3821747364
8.073888 1.658289 0.000053
1.000000 -0.000000 0.000000 -0.000000
pa_PairedNPCBodySlamVictim
3821747364
23.000002 141.258987 0.000065
-0.000000 0.000000 0.000000 1.000000
pa_KillMoveDeathclawRaiderStabRip
4169013329
4.421114 167.037964 -1.999977
0.000000 0.000001 0.000000 1.000000
pa_KillMoveDeathclawRaiderStabThrow
804297320
-0.000139 162.483078 1.999873
-0.000000 0.000000 0.000000 1.000000
pa_KillMoveFeralGhoulBiteNPC
2880447714
0.000020 112.838974 0.000015
-0.000000 0.000001 0.000000 1.000000
pa_PairedDeathclawRaiderGrabHeadThrow
1659120523
-0.000007 169.439957 -1.999969
0.000000 0.000000 0.000000 1.000000
pa_PairedFeralGhoulBiteNPCNeckVictim
3886463512
-3.633352 110.147125 0.000008
-0.000000 0.000000 0.000000 1.000000
pa_PairedKillAssaultronTakeDownHeadLaser_Victim
3321137862
-0.534734 92.039314 0.000007
-0.000000 0.000000 0.000000 1.000000
pa_PairedKillAssaultronLiftStab_Victim
3305092921
-10.112184 103.784416 0.000004
-0.000000 0.000000 0.000000 1.000000
pa_PairedDogmeatBiteHumanLeg2
2320565325
-0.000008 0.000016 0.000027
1.000000 -0.000000 -0.000000 0.000000
pa_PairedDogmeatBiteHumanLeg1
324556279
-0.000000 0.000037 -0.000000
1.000000 0.000000 0.000000 -0.000000
pa_PairedKillAssaultronTakeDownStab_Victim
1249733197
-0.000147 73.110641 -0.000001
-0.000000 0.000000 0.000000 1.000000
pa_PairedDogmeatBiteHumanStanding
3125590547
0.000034 185.551971 0.000042
-0.000000 0.000000 -0.000000 1.000000
pa_PairedDogmeatBiteHumanMoving
2116699132
0.276080 185.551971 0.000061
-0.000000 0.000000 -0.000000 1.000000
pa_PairedKillAssaultronLiftHeadLaser_Victim
1512691622
-10.112185 103.784416 0.000012
-0.000000 0.000000 0.000000 1.000000
pa_PairedKillMQ302DanseDeath
2667809829
-5.089181 -1.149931 0.000031
1.000000 0.000000 -0.000000 -0.000000
pa_PairedKillMQ302DanseDeathVictim
2667809829
0.000001 116.481651 0.000008
0.000000 0.000000 0.000000 1.000000
pa_PairedKillMove2hmHumanAttacker01
2593500287
0.000000 -0.000000 0.000023
1.000000 -0.000000 -0.000000 -0.000000
pa_PairedKillMove2hmHumanVictim01
2593500287
0.000003 80.741043 0.000031
0.000000 0.000001 0.000000 1.000000
pa_PairedKillMove1hmHumanAttacker01
337292188
-0.000000 0.000000 0.000027
1.000000 0.000000 0.000000 -0.000000
pa_PairedKillMove1hmHumanVictim01
337292188
0.000003 97.446655 0.000027
-0.000000 0.000001 0.000000 1.000000
pa_PairedKillMove1hmShortHumanAttacker01
1045491403
0.000003 0.000012 0.000008
1.000000 0.000000 -0.000000 -0.000000
pa_PairedKillMove1hmShortHumanVictim01
1045491403
0.000094 66.903839 0.000000
-0.000000 0.000001 0.000000 1.000000
pa_PairedMS13PaulFight
1680721313
8.957301 -0.469382 0.000119
1.000000 -0.000000 -0.000000 -0.000000
pa_PairedMS13PaulFightVictim
1680721313
12.833714 63.116096 0.000060
0.000001 0.000000 0.000000 1.000000
pa_PairedKillSneakPistolHit
3682674380
-0.118266 -0.191458 0.000119
1.000000 -0.000000 0.000000 -0.000000
pa_PairedKillSneakPistolHitVictim
3682674380
5.418579 86.536377 0.000031
1.000000 0.000000 -0.000000 -0.000000
pa_PairedKillSneakRifleHit
1776830312
0.030341 -0.231799 0.000149
1.000000 0.000000 -0.000000 0.000000
pa_PairedKillSneakRifleHitVictim
1776830312
19.057051 58.765579 0.000031
1.000000 0.000000 -0.000000 -0.000000
pa_PairedH2HJabJabCross
3882209870
0.145453 0.487200 0.000039
1.000000 -0.000000 0.000000 -0.000000
pa_PairedH2HJabJabCrossVictim
3882209870
4.620141 75.493195 0.000068
0.000001 0.000000 0.000000 1.000000
pa_PairedH2HLegKick
1294561012
0.069190 0.301313 0.000035
1.000000 0.000000 0.000000 0.000000
pa_PairedH2HLegKickVictim
1294561012
-6.392027 95.811409 0.000026
0.000001 0.000000 0.000000 1.000000
pa_RadscorpionStrike3rdP_Human
544404511
-4.065717 127.151436 -0.000003
-0.000000 0.000000 0.000000 1.000000
pa_PairedFEVHoundHumanKill3rdP
2970233161
2.344770 0.241076 -0.000000
1.000000 0.000000 0.000000 -0.000000
pa_RadscorpionStrike3rdP_HumanLead
2892948021
-0.000001 0.000015 0.000000
1.000000 -0.000000 -0.000000 -0.000000
pa_PairedKillMacheteVictim01
1105996729
-2.015607 0.820310 0.000046
1.000000 0.000000 -0.000000 -0.000000
pa_BloodbugHumanSyphon3rdtP_HumanLead
2930506196
0.000000 0.000000 0.000000
1.000000 0.000000 -0.000000 0.000000
pa_PairedPowerArmorForwardPowerPunch_Victim
2893366199
-0.000031 132.141846 0.000031
-0.000000 0.000001 0.000000 1.000000
pa_PairedPowerArmor1HM_Victim
2998668123
0.000001 84.677551 0.000008
-0.000000 0.000001 0.000000 1.000000
pa_PairedBrahminHumanPet
2387076437
0.999960 0.999998 1.000000
1.000000 -0.000000 -0.000000 -0.000000
pa_PairedKillPistolBash
1827886191
1.674480 2.835460 0.000035
1.000000 0.000000 -0.000000 0.000000
pa_PairedKillPistolBashVictim
1827886191
-0.317540 72.135490 0.000039
0.000001 0.000000 0.000000 1.000000
pa_PairedKillDLC01WeaponKill01
2438615965
-0.000000 0.000000 0.000011
1.000000 0.000000 -0.000000 -0.000000
pa_PairedKillDLC01WeaponKill01Victim
2438615965
-3.920571 114.731483 0.000103
0.000000 0.000000 0.000000 1.000000
pa_PairedKill2hmOverhead
2990760196
-0.000000 -0.000000 0.000004
1.000000 -0.000000 -0.000000 -0.000000
pa_PairedKill2hmOverheadVictim
2990760196
0.000003 100.651863 0.000031
0.000000 0.000001 0.000000 1.000000
pa_PairedKill1hmThroatSlashVictim
4280034375
-3.633354 84.703529 0.000015
0.000000 0.000000 0.000000 1.000000
pa_PairedKill1hmThroatSlash
4280034375
3.170138 1.212692 0.000111
1.000000 0.000000 -0.000000 -0.000000
pa_PairedKillH2HKneeSmash
3584348608
-4.344185 -0.757353 0.000122
1.000000 -0.000000 0.000000 -0.000000
pa_PairedKillH2HKneeSmashVictim
3584348608
-7.697334 88.311096 0.000030
0.000001 0.000000 0.000000 1.000000
pa_PairedKillH2HSuperMan
2260098676
-4.344180 -0.757343 0.000114
1.000000 -0.000000 0.000000 -0.000000
pa_PairedKillH2HSuperManVictim
2260098676
-7.697328 101.836464 0.000030
0.000001 0.000000 0.000000 1.000000
pa_PairedKill1hmShortShank
3928653136
3.170138 1.212692 0.000107
1.000000 -0.000000 -0.000000 -0.000000
pa_PairedKill1hmShortShank_Victim
3928653136
-3.633350 76.112335 0.000023
0.000000 0.000000 0.000000 1.000000
pa_PairedKillH2HUpperCutVictim
3417537393
0.126186 78.509254 0.000030
0.000001 0.000000 0.000000 1.000000
pa_PairedKillH2HUpperCut
3417537393
-0.000069 0.000001 0.000107
1.000000 0.000000 -0.000000 0.000000
49
13092219326056836587
7931409476500808294
13092219325853426278
8980176710585880478
17125266150318875721
7931409476704218603
988942606684983198
2136001703718626377
4567656240632521318
4567656240835931627
14908012640343494558
9421967874264993694
17125266150408531435
7931409476614562889
5214905042552033182
17125266150205121126
13092219325967180873
6254335592595001246
2136001703604871782
4567656240746275913
2136001703808282091
14908012639791031369
2136001704271089566
6254335591928783462
17125266150871338910
9421967873802186219
8980176710033417289
988942606132520009
16005742350060430409
5214905042089225707
6254335592132193771
9421967873598775910
5214905041885815398
8134992198307745694
14908012639677276774
14908012639880687083
4567656241298739102
6254335592042538057
13092219326519644062
8980176709919662694
16005742349946675814
988942606018765414
7327245155012251550
9421967873712530505
8980176710123073003
988942606222175723
16005742350150086123
5214905041999569993
7931409477167026078
2
pa_DeathclawPAGrabThrow_Victim
1251390162
-1.976160 187.583984 -0.000000
-0.001841 0.000002 0.000000 0.999998
pa_DeathclawPAPushDownSwipe3rdPVictim
240698028
-1.976160 158.411987 0.000001
-0.001476 0.000002 0.000000 0.999999
1
10635717347122679710
